…
Let’s look at trends in life expectancy in every country in the world!

# Only look at countries that have complete life expectancy data
life_expectancy <- wdi_clean %>%
  # Temporary filtering so we can work with just 6 countries at first
  # filter(country %in% c("Argentina", "Bolivia", "Brazil", "Belize", "Canada", "Chile")) %>% 
  # Look at each country on its own and remove countries where any of the life
  # expectancy values are missing
  group_by(country) %>% 
  filter(!any(is.na(life_expectancy)))

# See how many countries we're left with
life_expectancy %>% distinct(country)

## # A tibble: 195 x 1
## # Groups:   country [195]
##    country             
##    <chr>               
##  1 United Arab Emirates
##  2 Afghanistan         
##  3 Antigua and Barbuda 
##  4 Albania             
##  5 Armenia             
##  6 Angola              
##  7 Argentina           
##  8 Austria             
##  9 Australia           
## 10 Aruba               
## # ... with 185 more rows
…
